Prediction of House Prices in Ames
…
# Select the pre-processed training dataset
ames_train <- ames_all |> filter(dataset == "train")

# v-folds CV repeated 10 times (v x 10 models)
# ames_folds <- vfold_cv(ames_train, v = 8, repeats = 10, strata = SalePrice) # 10 folds are default

# Generate 1000 bootstrapped samples
set.seed(1982)
ames_boots <- bootstraps(ames_train, times = 1000)
ames_boots  
```

# A tibble: 1,000 × 2
   splits             id           
   <list>             <chr>        
 1 <split [1458/547]> Bootstrap0001
 2 <split [1458/532]> Bootstrap0002
 3 <split [1458/552]> Bootstrap0003
 4 <split [1458/511]> Bootstrap0004
 5 <split [1458/506]> Bootstrap0005
 6 <split [1458/548]> Bootstrap0006
 7 <split [1458/537]> Bootstrap0007
 8 <split [1458/532]> Bootstrap0008
 9 <split [1458/527]> Bootstrap0009
10 <split [1458/539]> Bootstrap0010
# ℹ 990 more rows
…
